
{
	"name": "Carousel"
	, "slug": "sample:carousel"
	, "description": "Carousel"
	, "version": "0.0.2"
	, "project": "sample"
	, "type": "web"
	, "category": "Tags"
	, "keywords": []
	, "author": "Alexander"
	, "views": {
		"web": "sample/views/components/carousel/carousel"
		,"cms": "sample/views/components/carousel/carousel-cms"
	}
}